	{
	  "Description" : "SAGAT", 
      "sType" : "Animated",
	  "SpriteMaps" : 
	  [
		{
            "SpriteMapName" : "Sprites/Sagat/sagat",
            "Columns" : 5, 
            "Rows" : 20
		}
	  ],
	  "AnimationSequences" : 
	  [
		{	
			"AnimationName" : "idle",
			"AnimationTime" : 500,
			"AnimationLoop" : 1,
			"AnimationFrames" : 
			[
				{	
					"weight" : 1,				
					"map" : 0,
					"row" : 0,
					"column" : 0,
					"colliders" : 
					[
                        {
                            "group": "body",
                            "x": 90,
                            "y": 70,
                            "width": 20,
                            "height": 13
                        },
						{
							"group" : "body",
							"x" : 64,
							"y" : 84,
							"width" : 73,
							"height" : 25						
						},
                        {
                            "group": "body",
                            "x": 69,
                            "y": 110,
                            "width": 63,
                            "height": 37
                        },
                        {
							"group" : "body",
							"x" : 66,
							"y" : 148,
							"width" : 63,
							"height" : 40						
						}


					]
				},
				{	
					"weight" : 1,				
					"map" : 0,
					"row" : 0,
					"column" : 1,
					"colliders" : 
					[
                        {
                            "group": "body",
                            "x": 90,
                            "y": 70,
                            "width": 20,
                            "height": 13
                        },
						{
							"group" : "body",
							"x" : 64,
							"y" : 84,
							"width" : 73,
							"height" : 25						
						},
                        {
                            "group": "body",
                            "x": 69,
                            "y": 110,
                            "width": 63,
                            "height": 37
                        },
                        {
							"group" : "body",
							"x" : 66,
							"y" : 148,
							"width" : 63,
							"height" : 40						
						}

					]
				},
				{	
					"weight" : 1,				
					"map" : 0,
					"row" : 0,
					"column" : 2,
					"colliders" : 
					[
                        {
                            "group": "body",
                            "x": 90,
                            "y": 70,
                            "width": 20,
                            "height": 13
                        },
						{
							"group" : "body",
							"x" : 64,
							"y" : 84,
							"width" : 73,
							"height" : 25						
						},
                        {
                            "group": "body",
                            "x": 69,
                            "y": 110,
                            "width": 63,
                            "height": 37
                        },
                        {
							"group" : "body",
							"x" : 66,
							"y" : 148,
							"width" : 63,
							"height" : 40						
						}

					]
				},
				{	
					"weight" : 1,
					"map" : 0,
					"row" : 0,
					"column" : 3,
					"colliders" : 
					[
                        {
                            "group": "body",
                            "x": 90,
                            "y": 70,
                            "width": 20,
                            "height": 13
                        },
						{
							"group" : "body",
							"x" : 64,
							"y" : 84,
							"width" : 73,
							"height" : 25						
						},
                        {
                            "group": "body",
                            "x": 69,
                            "y": 110,
                            "width": 63,
                            "height": 37
                        },
                        {
							"group" : "body",
							"x" : 66,
							"y" : 148,
							"width" : 63,
							"height" : 40						
						}

					]
				},
				{	
					"weight" : 1,
					"map" : 0,
					"row" : 0,
					"column" : 4,
					"colliders" : 
					[
                        {
                            "group": "body",
                            "x": 90,
                            "y": 70,
                            "width": 20,
                            "height": 13
                        },
						{
							"group" : "body",
							"x" : 64,
							"y" : 84,
							"width" : 73,
							"height" : 25						
						},
                        {
                            "group": "body",
                            "x": 69,
                            "y": 110,
                            "width": 63,
                            "height": 37
                        },
                        {
							"group" : "body",
							"x" : 66,
							"y" : 148,
							"width" : 63,
							"height" : 40						
						}

					]
				}

			]
		},
		{	
			"AnimationName" : "gothit",
			"AnimationTime" : 150,
			"AnimationLoop" : 0,
			"AnimationFrames" : 
			[
				{	
					"weight" : 1,
					"map" : 0,
					"row" : 1,
					"column" : 0
				},
				{	
					"weight" : 1,
					"map" : 0,
					"row" : 1,
					"column" : 1
				},
				{	
					"weight" : 1,
					"map" : 0,
					"row" : 1,
					"column" : 2
				},
				{	
					"weight" : 1,
					"map" : 0,
					"row" : 1,
					"column" : 1
				},
				{	
					"weight" : 1,
					"map" : 0,
					"row" : 1,
					"column" : 0
				}
			]
		},
		{	
			"AnimationName" : "highkick",
			"AnimationTime" : 500,
			"AnimationLoop" : 0,
			"AnimationFrames" : 
			[
				{	
					"weight" : 1,
					"map" : 0,
					"row" : 1,
					"column" : 3
				},
				{	
					"weight" : 1,
					"map" : 0,
					"row" : 1,
					"column" : 4
				},
				{	
					"weight" : 1,
					"map" : 0,
					"row" : 2,
					"column" : 0
				},
				{	
					"weight" : 1,
					"map" : 0,
					"row" : 2,
					"column" : 1,
					"colliders" : 
					[
                        {
                            "group": "hit",
                            "x": 125,
                            "y": 70,
                            "width": 60,
                            "height": 45
                        }
					]
				},
				{	
					"weight" : 1,
					"map" : 0,
					"row" : 2,
					"column" : 0
				}
			]
		},
		{	
			"AnimationName" : "walk",
			"AnimationTime" : 500,
			"AnimationLoop" : 1,
			"AnimationFrames" : 
			[
				{	
					"weight" : 1,
					"map" : 0,
					"row" : 2,
					"column" : 2,
					"colliders" : 
					[
                        {
                            "group": "body",
                            "x": 70,
                            "y": 71,
                            "width": 9,
                            "height": 49
                        }
					]
				},
				{	
					"weight" : 1,
					"map" : 0,
					"row" : 2,
					"column" : 3,
					"colliders" : 
					[
                        {
                            "group": "body",
                            "x": 70,
                            "y": 71,
                            "width": 9,
                            "height": 49
                        }
					]
				},
				{	
					"weight" : 1,
					"map" : 0,
					"row" : 2,
					"column" : 4,
					"colliders" : 
					[
                        {
                            "group": "body",
                            "x": 70,
                            "y": 71,
                            "width": 9,
                            "height": 49
                        }
					]
				},
				{	
					"weight" : 1,
					"map" : 0,
					"row" : 3,
					"column" : 0,
					"colliders" : 
					[
                        {
                            "group": "body",
                            "x": 70,
                            "y": 71,
                            "width": 9,
                            "height": 49
                        }
					]
				}
			]
		},
		{	
			"AnimationName" : "highpunch",
			"AnimationTime" : 500,
			"AnimationLoop" : 0,
			"AnimationFrames" : 
			[
				{	
					"weight" : 1,
					"map" : 0,
					"row" : 3,
					"column" : 1
				},
				{	
					"weight" : 1,
					"map" : 0,
					"row" : 3,
					"column" : 2
				},
				{	
					"weight" : 1,
					"map" : 0,
					"row" : 3,
					"column" : 3
				},
				{	
					"weight" : 1,
					"map" : 0,
					"row" : 3,
					"column" : 4
				},
				{	
					"weight" : 1,
					"map" : 0,
					"row" : 4,
					"column" : 0,
					"colliders" : 
					[
                        {
                            "group": "hit",
                            "x": 130,
                            "y": 92,
                            "width": 69,
                            "height": 16
                        }
					]
				}
			]
		}		
	  ]
	}